## Interface: 70100
## Title: SCT Options
## Notes: Options menu for SCT (LoadOnDemand)
## Author: Grayhoof
## Dependencies: sct
## LoadOnDemand: 1
locals\localization.lua
locals\localization.de.lua
locals\localization.fr.lua
locals\localization.es.lua
locals\localization.kr.lua
locals\localization.tw.lua
locals\localization.cn.lua
options_setup.lua
configs.lua
options.lua
options.xml
